{
  "black": "#000000",
  "white": "#FFFFFF",
  "transparent": "transparent",

  "primary": "#043362",

  "info": "#52A8FF",
  "success": "#28A745",
  "danger": "#DC3545",
  "warning": "#FD7E14",

  "link": "#007AFF",
  "background": "#EEEEEE",

  "positive": "#F71B1E",
  "negative": "#007AFF",
  "neutrality": "#9b9b9b",

  "gray": "#636366",
  "grayWarn": "#9b9b9b",

  "yellow": "#FFC107",
  "caption": "#7b7b7b"
}
